{
  "items": [
    {
      "album": {
        "album_type": "SINGLE",
        "artists": [
          {
            "external_urls": {
              "spotify": "https://open.spotify.com/artist/762FYAqSeuqmgbL6qEAJr8"
            },
            "href": "https://api.spotify.com/v1/artists/762FYAqSeuqmgbL6qEAJr8",
            "id": "762FYAqSeuqmgbL6qEAJr8",
            "name": "Dmitry Molosh",
            "type": "artist",
            "uri": "spotify:artist:762FYAqSeuqmgbL6qEAJr8"
          },
          {
            "external_urls": {
              "spotify": "https://open.spotify.com/artist/7sMOGsm8T0YZ230abl9TcP"
            },
            "href": "https://api.spotify.com/v1/artists/7sMOGsm8T0YZ230abl9TcP",
            "id": "7sMOGsm8T0YZ230abl9TcP",
            "name": "Nōpi",
            "type": "artist",
            "uri": "spotify:artist:7sMOGsm8T0YZ230abl9TcP"
          }
        ],
        "available_markets": [
          "AD",
          "AE",
          "AR",
          "AT",
          "AU",
          "BE",
          "BG",
          "BH",
          "BO",
          "BR",
          "CA",
          "CH",
          "CL",
          "CO",
          "CR",
          "CY",
          "CZ",
          "DE",
          "DK",
          "DO",
          "DZ",
          "EC",
          "EE",
          "EG",
          "ES",
          "FI",
          "FR",
          "GB",
          "GR",
          "GT",
          "HK",
          "HN",
          "HU",
          "ID",
          "IE",
          "IL",
          "IN",
          "IS",
          "IT",
          "JO",
          "JP",
          "KW",
          "LB",
          "LI",
          "LT",
          "LU",
          "LV",
          "MA",
          "MC",
          "MT",
          "MX",
          "MY",
          "NI",
          "NL",
          "NO",
          "NZ",
          "OM",
          "PA",
          "PE",
          "PH",
          "PL",
          "PS",
          "PT",
          "PY",
          "QA",
          "RO",
          "SA",
          "SE",
          "SG",
          "SK",
          "SV",
          "TH",
          "TN",
          "TR",
          "TW",
          "US",
          "UY",
          "VN",
          "ZA"
        ],
        "external_urls": {
          "spotify": "https://open.spotify.com/album/0peSOCjN2ayFd5MdRfCYnZ"
        },
        "href": "https://api.spotify.com/v1/albums/0peSOCjN2ayFd5MdRfCYnZ",
        "id": "0peSOCjN2ayFd5MdRfCYnZ",
        "images": [
          {
            "height": 640,
            "url": "https://i.scdn.co/image/ab67616d0000b2738263351afd0136c46ad71cc4",
            "width": 640
          },
          {
            "height": 300,
            "url": "https://i.scdn.co/image/ab67616d00001e028263351afd0136c46ad71cc4",
            "width": 300
          },
          {
            "height": 64,
            "url": "https://i.scdn.co/image/ab67616d000048518263351afd0136c46ad71cc4",
            "width": 64
          }
        ],
        "name": "Consciousness Switch",
        "release_date": "2020-11-13",
        "release_date_precision": "day",
        "total_tracks": 2,
        "type": "album",
        "uri": "spotify:album:0peSOCjN2ayFd5MdRfCYnZ"
      },
      "artists": [
        {
          "external_urls": {
            "spotify": "https://open.spotify.com/artist/762FYAqSeuqmgbL6qEAJr8"
          },
          "href": "https://api.spotify.com/v1/artists/762FYAqSeuqmgbL6qEAJr8",
          "id": "762FYAqSeuqmgbL6qEAJr8",
          "name": "Dmitry Molosh",
          "type": "artist",
          "uri": "spotify:artist:762FYAqSeuqmgbL6qEAJr8"
        },
        {
          "external_urls": {
            "spotify": "https://open.spotify.com/artist/7sMOGsm8T0YZ230abl9TcP"
          },
          "href": "https://api.spotify.com/v1/artists/7sMOGsm8T0YZ230abl9TcP",
          "id": "7sMOGsm8T0YZ230abl9TcP",
          "name": "Nōpi",
          "type": "artist",
          "uri": "spotify:artist:7sMOGsm8T0YZ230abl9TcP"
        }
      ],
      "available_markets": [
        "AD",
        "AE",
        "AR",
        "AT",
        "AU",
        "BE",
        "BG",
        "BH",
        "BO",
        "BR",
        "CA",
        "CH",
        "CL",
        "CO",
        "CR",
        "CY",
        "CZ",
        "DE",
        "DK",
        "DO",
        "DZ",
        "EC",
        "EE",
        "EG",
        "ES",
        "FI",
        "FR",
        "GB",
        "GR",
        "GT",
        "HK",
        "HN",
        "HU",
        "ID",
        "IE",
        "IL",
        "IN",
        "IS",
        "IT",
        "JO",
        "JP",
        "KW",
        "LB",
        "LI",
        "LT",
        "LU",
        "LV",
        "MA",
        "MC",
        "MT",
        "MX",
        "MY",
        "NI",
        "NL",
        "NO",
        "NZ",
        "OM",
        "PA",
        "PE",
        "PH",
        "PL",
        "PS",
        "PT",
        "PY",
        "QA",
        "RO",
        "SA",
        "SE",
        "SG",
        "SK",
        "SV",
        "TH",
        "TN",
        "TR",
        "TW",
        "US",
        "UY",
        "VN",
        "ZA"
      ],
      "disc_number": 1,
      "duration_ms": 539016,
      "explicit": false,
      "external_ids": {
        "isrc": "US83Z2037518"
      },
      "external_urls": {
        "spotify": "https://open.spotify.com/track/1rWmUQ5HVtoswLviuK0OwH"
      },
      "href": "https://api.spotify.com/v1/tracks/1rWmUQ5HVtoswLviuK0OwH",
      "id": "1rWmUQ5HVtoswLviuK0OwH",
      "is_local": false,
      "name": "Consciousness Switch",
      "popularity": 28,
      "preview_url": "https://p.scdn.co/mp3-preview/90b14f8d139a3ab0b867e887c8676354f689dfb3?cid=774b29d4f13844c495f206cafdad9c86",
      "track_number": 1,
      "type": "track",
      "uri": "spotify:track:1rWmUQ5HVtoswLviuK0OwH"
    },
    {
      "album": {
        "album_type": "SINGLE",
        "artists": [
          {
            "external_urls": {
              "spotify": "https://open.spotify.com/artist/1TqcQwnBqloJrKkGs4l4LT"
            },
            "href": "https://api.spotify.com/v1/artists/1TqcQwnBqloJrKkGs4l4LT",
            "id": "1TqcQwnBqloJrKkGs4l4LT",
            "name": "D-Nox",
            "type": "artist",
            "uri": "spotify:artist:1TqcQwnBqloJrKkGs4l4LT"
          },
          {
            "external_urls": {
              "spotify": "https://open.spotify.com/artist/6MzHMxgYcbj6ue5w9pbNp9"
            },
            "href": "https://api.spotify.com/v1/artists/6MzHMxgYcbj6ue5w9pbNp9",
            "id": "6MzHMxgYcbj6ue5w9pbNp9",
            "name": "Stan Kolev",
            "type": "artist",
            "uri": "spotify:artist:6MzHMxgYcbj6ue5w9pbNp9"
          }
        ],
        "available_markets": [
          "AD",
          "AE",
          "AR",
          "AT",
          "AU",
          "BE",
          "BG",
          "BH",
          "BO",
          "BR",
          "CA",
          "CH",
          "CL",
          "CO",
          "CR",
          "CY",
          "CZ",
          "DE",
          "DK",
          "DO",
          "DZ",
          "EC",
          "EE",
          "EG",
          "ES",
          "FI",
          "FR",
          "GB",
          "GR",
          "GT",
          "HK",
          "HN",
          "HU",
          "ID",
          "IE",
          "IL",
          "IN",
          "IS",
          "IT",
          "JO",
          "JP",
          "KW",
          "LB",
          "LI",
          "LT",
          "LU",
          "LV",
          "MA",
          "MC",
          "MT",
          "MX",
          "MY",
          "NI",
          "NL",
          "NO",
          "NZ",
          "OM",
          "PA",
          "PE",
          "PH",
          "PL",
          "PS",
          "PT",
          "PY",
          "QA",
          "RO",
          "SA",
          "SE",
          "SG",
          "SK",
          "SV",
          "TH",
          "TN",
          "TR",
          "TW",
          "US",
          "UY",
          "VN",
          "ZA"
        ],
        "external_urls": {
          "spotify": "https://open.spotify.com/album/2KfKcY4HGlFVA56CD0yVLZ"
        },
        "href": "https://api.spotify.com/v1/albums/2KfKcY4HGlFVA56CD0yVLZ",
        "id": "2KfKcY4HGlFVA56CD0yVLZ",
        "images": [
          {
            "height": 640,
            "url": "https://i.scdn.co/image/ab67616d0000b2739cf73da12f8e68b2354aad11",
            "width": 640
          },
          {
            "height": 300,
            "url": "https://i.scdn.co/image/ab67616d00001e029cf73da12f8e68b2354aad11",
            "width": 300
          },
          {
            "height": 64,
            "url": "https://i.scdn.co/image/ab67616d000048519cf73da12f8e68b2354aad11",
            "width": 64
          }
        ],
        "name": "Passion",
        "release_date": "2020-10-12",
        "release_date_precision": "day",
        "total_tracks": 2,
        "type": "album",
        "uri": "spotify:album:2KfKcY4HGlFVA56CD0yVLZ"
      },
      "artists": [
        {
          "external_urls": {
            "spotify": "https://open.spotify.com/artist/1TqcQwnBqloJrKkGs4l4LT"
          },
          "href": "https://api.spotify.com/v1/artists/1TqcQwnBqloJrKkGs4l4LT",
          "id": "1TqcQwnBqloJrKkGs4l4LT",
          "name": "D-Nox",
          "type": "artist",
          "uri": "spotify:artist:1TqcQwnBqloJrKkGs4l4LT"
        },
        {
          "external_urls": {
            "spotify": "https://open.spotify.com/artist/6MzHMxgYcbj6ue5w9pbNp9"
          },
          "href": "https://api.spotify.com/v1/artists/6MzHMxgYcbj6ue5w9pbNp9",
          "id": "6MzHMxgYcbj6ue5w9pbNp9",
          "name": "Stan Kolev",
          "type": "artist",
          "uri": "spotify:artist:6MzHMxgYcbj6ue5w9pbNp9"
        }
      ],
      "available_markets": [
        "AD",
        "AE",
        "AR",
        "AT",
        "AU",
        "BE",
        "BG",
        "BH",
        "BO",
        "BR",
        "CA",
        "CH",
        "CL",
        "CO",
        "CR",
        "CY",
        "CZ",
        "DE",
        "DK",
        "DO",
        "DZ",
        "EC",
        "EE",
        "EG",
        "ES",
        "FI",
        "FR",
        "GB",
        "GR",
        "GT",
        "HK",
        "HN",
        "HU",
        "ID",
        "IE",
        "IL",
        "IN",
        "IS",
        "IT",
        "JO",
        "JP",
        "KW",
        "LB",
        "LI",
        "LT",
        "LU",
        "LV",
        "MA",
        "MC",
        "MT",
        "MX",
        "MY",
        "NI",
        "NL",
        "NO",
        "NZ",
        "OM",
        "PA",
        "PE",
        "PH",
        "PL",
        "PS",
        "PT",
        "PY",
        "QA",
        "RO",
        "SA",
        "SE",
        "SG",
        "SK",
        "SV",
        "TH",
        "TN",
        "TR",
        "TW",
        "US",
        "UY",
        "VN",
        "ZA"
      ],
      "disc_number": 1,
      "duration_ms": 482000,
      "explicit": false,
      "external_ids": {
        "isrc": "UKACT2011338"
      },
      "external_urls": {
        "spotify": "https://open.spotify.com/track/1bVNOAzR9giwIivkcshTpP"
      },
      "href": "https://api.spotify.com/v1/tracks/1bVNOAzR9giwIivkcshTpP",
      "id": "1bVNOAzR9giwIivkcshTpP",
      "is_local": false,
      "name": "Passion - Original Mix",
      "popularity": 23,
      "preview_url": "https://p.scdn.co/mp3-preview/3745efcecd584117beb2be4fee7643ead1ebe8e7?cid=774b29d4f13844c495f206cafdad9c86",
      "track_number": 1,
      "type": "track",
      "uri": "spotify:track:1bVNOAzR9giwIivkcshTpP"
    },
    {
      "album": {
        "album_type": "SINGLE",
        "artists": [
          {
            "external_urls": {
              "spotify": "https://open.spotify.com/artist/6MzHMxgYcbj6ue5w9pbNp9"
            },
            "href": "https://api.spotify.com/v1/artists/6MzHMxgYcbj6ue5w9pbNp9",
            "id": "6MzHMxgYcbj6ue5w9pbNp9",
            "name": "Stan Kolev",
            "type": "artist",
            "uri": "spotify:artist:6MzHMxgYcbj6ue5w9pbNp9"
          }
        ],
        "available_markets": [
          "AD",
          "AE",
          "AR",
          "AT",
          "AU",
          "BE",
          "BG",
          "BH",
          "BO",
          "BR",
          "CA",
          "CH",
          "CL",
          "CO",
          "CR",
          "CY",
          "CZ",
          "DE",
          "DK",
          "DO",
          "DZ",
          "EC",
          "EE",
          "EG",
          "ES",
          "FI",
          "FR",
          "GB",
          "GR",
          "GT",
          "HK",
          "HN",
          "HU",
          "ID",
          "IE",
          "IL",
          "IN",
          "IS",
          "IT",
          "JO",
          "JP",
          "KW",
          "LB",
          "LI",
          "LT",
          "LU",
          "LV",
          "MA",
          "MC",
          "MT",
          "MX",
          "MY",
          "NI",
          "NL",
          "NO",
          "NZ",
          "OM",
          "PA",
          "PE",
          "PH",
          "PL",
          "PS",
          "PT",
          "PY",
          "QA",
          "RO",
          "SA",
          "SE",
          "SG",
          "SK",
          "SV",
          "TH",
          "TN",
          "TR",
          "TW",
          "US",
          "UY",
          "VN",
          "ZA"
        ],
        "external_urls": {
          "spotify": "https://open.spotify.com/album/2khLaEBxaaisEWt7lGTPg3"
        },
        "href": "https://api.spotify.com/v1/albums/2khLaEBxaaisEWt7lGTPg3",
        "id": "2khLaEBxaaisEWt7lGTPg3",
        "images": [
          {
            "height": 640,
            "url": "https://i.scdn.co/image/ab67616d0000b2738b05417aa4ea0f85903c81ac",
            "width": 640
          },
          {
            "height": 300,
            "url": "https://i.scdn.co/image/ab67616d00001e028b05417aa4ea0f85903c81ac",
            "width": 300
          },
          {
            "height": 64,
            "url": "https://i.scdn.co/image/ab67616d000048518b05417aa4ea0f85903c81ac",
            "width": 64
          }
        ],
        "name": "Listen [The Remixes]",
        "release_date": "2019-01-11",
        "release_date_precision": "day",
        "total_tracks": 2,
        "type": "album",
        "uri": "spotify:album:2khLaEBxaaisEWt7lGTPg3"
      },
      "artists": [
        {
          "external_urls": {
            "spotify": "https://open.spotify.com/artist/6MzHMxgYcbj6ue5w9pbNp9"
          },
          "href": "https://api.spotify.com/v1/artists/6MzHMxgYcbj6ue5w9pbNp9",
          "id": "6MzHMxgYcbj6ue5w9pbNp9",
          "name": "Stan Kolev",
          "type": "artist",
          "uri": "spotify:artist:6MzHMxgYcbj6ue5w9pbNp9"
        },
        {
          "external_urls": {
            "spotify": "https://open.spotify.com/artist/2q4QQApDOk5PUdFGWfHmJR"
          },
          "href": "https://api.spotify.com/v1/artists/2q4QQApDOk5PUdFGWfHmJR",
          "id": "2q4QQApDOk5PUdFGWfHmJR",
          "name": "Max Freegrant",
          "type": "artist",
          "uri": "spotify:artist:2q4QQApDOk5PUdFGWfHmJR"
        },
        {
          "external_urls": {
            "spotify": "https://open.spotify.com/artist/3m91RDu6WNtDGSHblWjZ7w"
          },
          "href": "https://api.spotify.com/v1/artists/3m91RDu6WNtDGSHblWjZ7w",
          "id": "3m91RDu6WNtDGSHblWjZ7w",
          "name": "Slow Fish",
          "type": "artist",
          "uri": "spotify:artist:3m91RDu6WNtDGSHblWjZ7w"
        }
      ],
      "available_markets": [
        "AD",
        "AE",
        "AR",
        "AT",
        "AU",
        "BE",
        "BG",
        "BH",
        "BO",
        "BR",
        "CA",
        "CH",
        "CL",
        "CO",
        "CR",
        "CY",
        "CZ",
        "DE",
        "DK",
        "DO",
        "DZ",
        "EC",
        "EE",
        "EG",
        "ES",
        "FI",
        "FR",
        "GB",
        "GR",
        "GT",
        "HK",
        "HN",
        "HU",
        "ID",
        "IE",
        "IL",
        "IN",
        "IS",
        "IT",
        "JO",
        "JP",
        "KW",
        "LB",
        "LI",
        "LT",
        "LU",
        "LV",
        "MA",
        "MC",
        "MT",
        "MX",
        "MY",
        "NI",
        "NL",
        "NO",
        "NZ",
        "OM",
        "PA",
        "PE",
        "PH",
        "PL",
        "PS",
        "PT",
        "PY",
        "QA",
        "RO",
        "SA",
        "SE",
        "SG",
        "SK",
        "SV",
        "TH",
        "TN",
        "TR",
        "TW",
        "US",
        "UY",
        "VN",
        "ZA"
      ],
      "disc_number": 1,
      "duration_ms": 395619,
      "explicit": false,
      "external_ids": {
        "isrc": "GBLV61815471"
      },
      "external_urls": {
        "spotify": "https://open.spotify.com/track/5iE3PyNL1BxMBTLkq5iLIM"
      },
      "href": "https://api.spotify.com/v1/tracks/5iE3PyNL1BxMBTLkq5iLIM",
      "id": "5iE3PyNL1BxMBTLkq5iLIM",
      "is_local": false,
      "name": "Listen - Max Freegrant & Slow Fish Remix",
      "popularity": 21,
      "preview_url": "https://p.scdn.co/mp3-preview/00de5a46856b626059d1b9e6236101c10dfe1c26?cid=774b29d4f13844c495f206cafdad9c86",
      "track_number": 1,
      "type": "track",
      "uri": "spotify:track:5iE3PyNL1BxMBTLkq5iLIM"
    }
  ],
  "total": 50,
  "limit": 3,
  "offset": 0,
  "href": "https://api.spotify.com/v1/me/top/tracks?limit=5&offset=0",
  "previous": null,
  "next": "https://api.spotify.com/v1/me/top/tracks?limit=5&offset=5"
}
